2k18/file.vcd
$date
	Sat Nov  7 16:12:50 2020
$end
$version
	Icarus Verilog
$end
$timescale
	1ns
$end
$scope module tb_intg $end
$var wire 4 ! q [3:0] $end
$var wire 1 " g $end
$var reg 1 # clk $end
$var reg 1 $ s $end
$var reg 1 % set $end
$var reg 1 & xx $end
$scope module mod $end
$var wire 1 # clk $end
$var wire 1 ' d $end
$var wire 1 ( en $end
$var wire 1 ) rst $end
$var wire 1 $ s $end
$var wire 1 % set $end
$var wire 1 & xx $end
$var wire 1 * zz $end
$var wire 3 + t [2:0] $end
$var wire 4 , q [3:0] $end
$var wire 1 " g $end
$scope module ctr $end
$var wire 1 - clk $end
$var wire 1 # clock $end
$var wire 1 ( en $end
$var wire 1 ) rst $end
$var wire 4 . t [3:0] $end
$var wire 4 / q [3:0] $end
$scope module ff1 $end
$var wire 1 - clk $end
$var wire 1 ) reset $end
$var wire 1 0 t $end
$var reg 1 1 q $end
$upscope $end
$scope module ff2 $end
$var wire 1 - clk $end
$var wire 1 ) reset $end
$var wire 1 2 t $end
$var reg 1 3 q $end
$upscope $end
$scope module ff3 $end
$var wire 1 - clk $end
$var wire 1 ) reset $end
$var wire 1 4 t $end
$var reg 1 5 q $end
$upscope $end
$scope module ff4 $end
$var wire 1 - clk $end
$var wire 1 ) reset $end
$var wire 1 6 t $end
$var reg 1 7 q $end
$upscope $end
$upscope $end
$scope module ctrl $end
$var wire 1 # clk $end
$var wire 1 $ s $end
$var wire 1 8 sbar $end
$var wire 1 % set $end
$var wire 1 9 t0and1 $end
$var wire 1 : t0and2 $end
$var wire 1 ; t0or1 $end
$var wire 1 < t1and1 $end
$var wire 1 = t1and2 $end
$var wire 1 > t1and3 $end
$var wire 1 ? t1or1 $end
$var wire 1 @ t1or2 $end
$var wire 1 A t2and1 $end
$var wire 1 B t2and2 $end
$var wire 1 C t2or1 $end
$var wire 1 & x $end
$var wire 1 D xbar $end
$var wire 1 * z $end
$var wire 1 E zbar $end
$var wire 1 F t2 $end
$var wire 1 G t1 $end
$var wire 1 H t0 $end
$scope module ff1 $end
$var wire 1 # clk $end
$var wire 1 ; d $end
$var wire 1 I reset $end
$var wire 1 % set $end
$var reg 1 H q $end
$upscope $end
$scope module ff2 $end
$var wire 1 # clk $end
$var wire 1 @ d $end
$var wire 1 J reset $end
$var wire 1 K set $end
$var reg 1 G q $end
$upscope $end
$scope module ff3 $end
$var wire 1 # clk $end
$var wire 1 C d $end
$var wire 1 L reset $end
$var wire 1 M set $end
$var reg 1 F q $end
$upscope $end
$upscope $end
$scope module ff $end
$var wire 1 # clk $end
$var wire 1 ' d $end
$var wire 1 ) reset $end
$var wire 1 N set $end
$var reg 1 " q $end
$upscope $end
$upscope $end
$upscope $end
$enddefinitions $end
#0
$dumpvars
0N
0M
0L
0K
0J
0I
1H
0G
0F
1E
1D
0C
0B
0A
0@
0?
0>
0=
0<
1;
0:
19
18
07
06
05
04
03
02
01
10
b0 /
b1 .
0-
b0 ,
b1 +
0*
0)
0(
0'
0&
1%
0$
0#
0"
b0 !
$end
#500000
1#
#1000000
0#
#1500000
1#
#2000000
0#
#2500000
1#
#3000000
0#
#3500000
1#
#4000000
0#
#4500000
1#
#5000000
0;
1@
09
1?
0D
1)
08
1<
0#
1&
0%
1$
#5500000
12
b11 .
b1 !
b1 ,
b1 /
11
1-
0@
1(
0?
0)
1C
0<
1A
0H
b10 +
1G
1#
#6000000
0-
0#
#6500000
02
b1 .
0A
1B
13
b10 !
b10 ,
b10 /
01
0G
b100 +
1F
1-
1#
#7000000
0-
0#
#7500000
14
12
b111 .
b11 !
b11 ,
b11 /
11
1-
1#
#8000000
0-
0#
#8500000
06
04
02
b1 .
15
03
b100 !
b100 ,
b100 /
01
1-
1#
#9000000
0-
0#
#9500000
12
b11 .
b101 !
b101 ,
b101 /
11
1-
1#
#10000000
0-
0#
#10500000
02
b1 .
13
b110 !
b110 ,
b110 /
01
1-
1#
#11000000
0-
0#
#11500000
16
14
12
b1111 .
b111 !
b111 ,
b111 /
11
1-
1#
#12000000
0-
0#
#12500000
06
04
02
b1 .
17
05
03
b1000 !
b1000 ,
b1000 /
01
1-
1#
#13000000
0-
0#
#13500000
12
b11 .
b1001 !
b1001 ,
b1001 /
11
1-
1#
#14000000
0-
0#
#14500000
02
b1 .
13
b1010 !
b1010 ,
b1010 /
01
1-
1#
#15000000
0-
0#
#15500000
14
12
b111 .
b1011 !
b1011 ,
b1011 /
11
1-
1#
#16000000
0-
0#
#16500000
06
04
02
b1 .
15
03
b1100 !
b1100 ,
b1100 /
01
1-
1#
#17000000
0-
0#
#17500000
12
b11 .
b1101 !
b1101 ,
b1101 /
11
1-
1#
#18000000
0-
0#
#18500000
02
b1 .
13
b1110 !
b1110 ,
b1110 /
01
1-
1#
#19000000
0-
0#
#19500000
0(
0C
0B
1;
16
1'
0E
1:
1*
14
12
b1111 .
b1111 !
b1111 ,
b1111 /
11
0-
1#
#20000000
0#
#20500000
1@
1?
1)
0;
0'
1<
0:
1H
b1 +
0F
1"
1#
#21000000
0#
#21500000
1E
06
04
0*
02
b1 .
07
05
03
b0 !
b0 ,
b0 /
01
1-
0@
1(
0?
0)
1C
0<
1A
0H
b10 +
1G
0"
1#
#22000000
0-
0#
#22500000
12
b11 .
0A
1B
b1 !
b1 ,
b1 /
11
0G
b100 +
1F
1-
1#
#23000000
0-
0#
#23500000
02
b1 .
13
b10 !
b10 ,
b10 /
01
1-
1#
#24000000
0-
0#
#24500000
14
12
b111 .
b11 !
b11 ,
b11 /
11
1-
1#
#25000000
0-
0#
#25500000
06
04
02
b1 .
15
03
b100 !
b100 ,
b100 /
01
1-
1#
#26000000
0-
0#
#26500000
12
b11 .
b101 !
b101 ,
b101 /
11
1-
1#
#27000000
0-
0#
#27500000
02
b1 .
13
b110 !
b110 ,
b110 /
01
1-
1#
#28000000
0-
0#
#28500000
16
14
12
b1111 .
b111 !
b111 ,
b111 /
11
1-
1#
#29000000
0-
0#
#29500000
06
04
02
b1 .
17
05
03
b1000 !
b1000 ,
b1000 /
01
1-
1#
#30000000
0-
0#
#30500000
12
b11 .
b1001 !
b1001 ,
b1001 /
11
1-
1#
#31000000
0-
0#
#31500000
02
b1 .
13
b1010 !
b1010 ,
b1010 /
01
1-
1#
#32000000
0-
0#
#32500000
14
12
b111 .
b1011 !
b1011 ,
b1011 /
11
1-
1#
#33000000
0-
0#
#33500000
06
04
02
b1 .
15
03
b1100 !
b1100 ,
b1100 /
01
1-
1#
#34000000
0-
0#
#34500000
12
b11 .
b1101 !
b1101 ,
b1101 /
11
1-
1#
#35000000
1@
1?
0(
1=
0C
0-
1D
0B
0#
0&
#35500000
0?
1>
0=
1G
b10 +
0F
1#
